{
    "_links": {
        "self": {
            "href": "http:\/\/default\/profile-list\/kevin-hu?_format=hal_json"
        },
        "type": {
            "href": "http:\/\/drupal.org\/rest\/type\/node\/profile"
        },
        "http:\/\/drupal.org\/rest\/relation\/node\/profile\/uid": [
            {
                "href": "http:\/\/default\/user\/1?_format=hal_json"
            }
        ],
        "http:\/\/drupal.org\/rest\/relation\/node\/profile\/revision_uid": [
            {
                "href": "http:\/\/default\/user\/1?_format=hal_json"
            }
        ],
        "http:\/\/drupal.org\/rest\/relation\/node\/profile\/field_profile_department": [
            {
                "href": "http:\/\/default\/node\/110?_format=hal_json"
            },
            {
                "href": "http:\/\/default\/programs\/biological-sciences?_format=hal_json"
            }
        ],
        "http:\/\/drupal.org\/rest\/relation\/node\/profile\/field_profile_image": [
            {
                "href": "http:\/\/default\/sites\/default\/files\/2017-05\/Kevin%20Hu%20Portrait_0_7_1.JPG"
            }
        ],
        "http:\/\/drupal.org\/rest\/relation\/node\/profile\/field_profile_research_interests": [
            {
                "href": "http:\/\/default\/taxonomy\/term\/24?_format=hal_json"
            }
        ]
    },
    "nid": [
        {
            "value": 72
        }
    ],
    "uuid": [
        {
            "value": "9311462f-d839-4834-abb0-adf813dafce4"
        }
    ],
    "vid": [
        {
            "value": 72
        }
    ],
    "type": [
        {
            "target_id": "profile"
        }
    ],
    "status": [
        {
            "value": true
        }
    ],
    "title": [
        {
            "value": "Kevin Hu"
        }
    ],
    "_embedded": {
        "http:\/\/drupal.org\/rest\/relation\/node\/profile\/uid": [
            {
                "_links": {
                    "self": {
                        "href": "http:\/\/default\/user\/1?_format=hal_json"
                    },
                    "type": {
                        "href": "http:\/\/drupal.org\/rest\/type\/user\/user"
                    }
                },
                "uuid": [
                    {
                        "value": "5aef157e-2748-4e6d-8ee5-a7320424a21e"
                    }
                ]
            }
        ],
        "http:\/\/drupal.org\/rest\/relation\/node\/profile\/revision_uid": [
            {
                "_links": {
                    "self": {
                        "href": "http:\/\/default\/user\/1?_format=hal_json"
                    },
                    "type": {
                        "href": "http:\/\/drupal.org\/rest\/type\/user\/user"
                    }
                },
                "uuid": [
                    {
                        "value": "5aef157e-2748-4e6d-8ee5-a7320424a21e"
                    }
                ]
            }
        ],
        "http:\/\/drupal.org\/rest\/relation\/node\/profile\/field_profile_department": [
            {
                "_links": {
                    "self": {
                        "href": "http:\/\/default\/node\/110?_format=hal_json"
                    },
                    "type": {
                        "href": "http:\/\/drupal.org\/rest\/type\/node\/department"
                    }
                },
                "uuid": [
                    {
                        "value": "6446420c-f6d1-44e3-a73e-e76131b3c93a"
                    }
                ]
            },
            {
                "_links": {
                    "self": {
                        "href": "http:\/\/default\/programs\/biological-sciences?_format=hal_json"
                    },
                    "type": {
                        "href": "http:\/\/drupal.org\/rest\/type\/node\/program"
                    }
                },
                "uuid": [
                    {
                        "value": "e08917b9-173d-4dc8-bcc3-1f027d2405d3"
                    }
                ]
            }
        ],
        "http:\/\/drupal.org\/rest\/relation\/node\/profile\/field_profile_image": [
            {
                "_links": {
                    "self": {
                        "href": "http:\/\/default\/sites\/default\/files\/2017-05\/Kevin%20Hu%20Portrait_0_7_1.JPG"
                    },
                    "type": {
                        "href": "http:\/\/drupal.org\/rest\/type\/file\/file"
                    }
                },
                "uuid": [
                    {
                        "value": "f12df889-5157-4ea7-8dd5-3f58ee94f5c6"
                    }
                ],
                "alt": "Kevin Hu",
                "title": "",
                "width": "360",
                "height": "415"
            }
        ],
        "http:\/\/drupal.org\/rest\/relation\/node\/profile\/field_profile_research_interests": [
            {
                "_links": {
                    "self": {
                        "href": "http:\/\/default\/taxonomy\/term\/24?_format=hal_json"
                    },
                    "type": {
                        "href": "http:\/\/drupal.org\/rest\/type\/taxonomy_term\/interests"
                    }
                },
                "uuid": [
                    {
                        "value": "bd9654b1-e234-4015-a6bf-49d38d2c9c6a"
                    }
                ]
            }
        ]
    },
    "created": [
        {
            "value": 1494147875
        }
    ],
    "changed": [
        {
            "value": 1496175723
        }
    ],
    "promote": [
        {
            "value": false
        }
    ],
    "sticky": [
        {
            "value": false
        }
    ],
    "revision_translation_affected": [
        {
            "value": true
        }
    ],
    "path": [
        {
            "alias": "\/profile-list\/kevin-hu",
            "pid": 35
        }
    ],
    "body": [
        {
            "value": "<p>Kevin is a graduate of the Cognitive System program from the University of British Columbia. His specialization in Computational Intelligence and Design gave him an insatiable appetite to find better ways of solving a problem through computing. He was first introduced to Drupal through website development on a project funded by the&nbsp;UBC&nbsp;Teaching and Learning Enhancement Fund.<\/p>\r\n\r\n<blockquote>\r\n<p>From San Francisco to New York, Kevin has worked with a variety of projects for clients such as Disney and Time Inc, helping them successfully make the transition to Drupal and train in-house staff.<\/p>\r\n<\/blockquote>\r\n",
            "format": "rich_text",
            "summary": ""
        }
    ],
    "field_profile_courses": [
        {
            "value": "English 112"
        }
    ],
    "field_profile_education": [
        {
            "value": "MA, Contemporary Writing, University of Illinois, Urbana, 1997"
        }
    ],
    "field_profile_email": [
        {
            "value": "kevin@imagexmedia.com"
        }
    ],
    "field_profile_job_title": [
        {
            "value": "Director of Development"
        }
    ],
    "field_profile_name": [
        {
            "title": null,
            "given": "Kevin",
            "middle": null,
            "family": "Hu",
            "generational": null,
            "credentials": null
        }
    ],
    "field_profile_office": [
        {
            "value": "22 Omega Ave."
        }
    ],
    "field_profile_phone": [
        {
            "value": "999546251"
        }
    ],
    "field_profile_publications": [
        {
            "value": "<h3>Vestibulum pharetra ante non nisi molestie, ut tempus quam gravida&nbsp;\u2013 Oct 1 1984<\/h3>\r\n\r\n<p>by Karl Wagner&nbsp;(Author)<\/p>\r\n",
            "format": "rich_text"
        },
        {
            "value": "<h3>Vestibulum pharetra ante non nisi molestie, ut tempus quam gravida&nbsp;\u2013 Nov 1 2016<\/h3>\r\n\r\n<p>by Jeanne Smith-James&nbsp;(Author, Contributor)<\/p>\r\n",
            "format": "rich_text"
        },
        {
            "value": "<h3>Vestibulum pharetra ante non nisi molestie, ut tempus quam gravida&nbsp;\u2013 Apr 8 2005<\/h3>\r\n\r\n<p>by Todd West&nbsp;(Author)<\/p>\r\n",
            "format": "rich_text"
        }
    ],
    "field_profile_research_projects": [
        {
            "value": "<h3>Development in Nepal.<\/h3>\r\n\r\n<p><strong>Principal Investigator:<\/strong> Lynn Souza<\/p>\r\n\r\n<p><strong>Supervisor:<\/strong>&nbsp;Dave&nbsp;Chang, MD, professor of medicine.<\/p>\r\n",
            "format": "rich_text"
        },
        {
            "value": "<h3>Vestibulum pharetra ante non nisi molestie, ut tempus quam gravida.<\/h3>\r\n\r\n<p><strong>Principal Investigator:&nbsp;<\/strong>Betsy&nbsp;Wight<\/p>\r\n\r\n<p><strong>Supervisor:<\/strong>&nbsp;W.&nbsp;Chang, MD, associate professor of science.<\/p>\r\n",
            "format": "rich_text"
        },
        {
            "value": "<h3>Responsible Research in Practice<\/h3>\r\n\r\n<p>Vestibulum pharetra ante non nisi molestie, ut tempus quam gravida.<\/p>\r\n\r\n<p><strong>Principal Investigator:<\/strong> D. Green<\/p>\r\n",
            "format": "rich_text"
        },
        {
            "value": "<h3>True Stories Well Told<\/h3>\r\n\r\n<p>Vestibulum pharetra ante non nisi molestie, ut tempus quam gravida.<\/p>\r\n\r\n<p><strong>Principal Investigator:<\/strong> L. Green<\/p>\r\n",
            "format": "rich_text"
        }
    ],
    "field_profile_students": [
        {
            "value": "<ul>\r\n\t<li>Les Cordell<\/li>\r\n\t<li>Yuriy Gerasimov<\/li>\r\n\t<li>Gavin Graham<\/li>\r\n\t<li>Bryan Heredia<\/li>\r\n\t<li>Erin Joyce<\/li>\r\n\t<li>Travis Ketler<\/li>\r\n<\/ul>\r\n",
            "format": "rich_text"
        }
    ],
    "field_profile_type": [
        {
            "value": "faculty"
        }
    ]
}
