{
    "_links": {
        "self": {
            "href": "http:\/\/default\/profile-list\/sarah-wall?_format=hal_json"
        },
        "type": {
            "href": "http:\/\/drupal.org\/rest\/type\/node\/profile"
        },
        "http:\/\/drupal.org\/rest\/relation\/node\/profile\/uid": [
            {
                "href": "http:\/\/default\/user\/1?_format=hal_json"
            }
        ],
        "http:\/\/drupal.org\/rest\/relation\/node\/profile\/revision_uid": [
            {
                "href": "http:\/\/default\/user\/1?_format=hal_json"
            }
        ],
        "http:\/\/drupal.org\/rest\/relation\/node\/profile\/field_profile_department": [
            {
                "href": "http:\/\/default\/node\/109?_format=hal_json"
            },
            {
                "href": "http:\/\/default\/node\/111?_format=hal_json"
            }
        ],
        "http:\/\/drupal.org\/rest\/relation\/node\/profile\/field_profile_image": [
            {
                "href": "http:\/\/default\/sites\/default\/files\/2017-05\/_W0A0990_7_1.jpg"
            }
        ]
    },
    "nid": [
        {
            "value": 56
        }
    ],
    "uuid": [
        {
            "value": "d805377d-07cd-4045-82bf-7000909d98fe"
        }
    ],
    "vid": [
        {
            "value": 56
        }
    ],
    "type": [
        {
            "target_id": "profile"
        }
    ],
    "status": [
        {
            "value": true
        }
    ],
    "title": [
        {
            "value": "Sarah Wall"
        }
    ],
    "_embedded": {
        "http:\/\/drupal.org\/rest\/relation\/node\/profile\/uid": [
            {
                "_links": {
                    "self": {
                        "href": "http:\/\/default\/user\/1?_format=hal_json"
                    },
                    "type": {
                        "href": "http:\/\/drupal.org\/rest\/type\/user\/user"
                    }
                },
                "uuid": [
                    {
                        "value": "5aef157e-2748-4e6d-8ee5-a7320424a21e"
                    }
                ]
            }
        ],
        "http:\/\/drupal.org\/rest\/relation\/node\/profile\/revision_uid": [
            {
                "_links": {
                    "self": {
                        "href": "http:\/\/default\/user\/1?_format=hal_json"
                    },
                    "type": {
                        "href": "http:\/\/drupal.org\/rest\/type\/user\/user"
                    }
                },
                "uuid": [
                    {
                        "value": "5aef157e-2748-4e6d-8ee5-a7320424a21e"
                    }
                ]
            }
        ],
        "http:\/\/drupal.org\/rest\/relation\/node\/profile\/field_profile_department": [
            {
                "_links": {
                    "self": {
                        "href": "http:\/\/default\/node\/109?_format=hal_json"
                    },
                    "type": {
                        "href": "http:\/\/drupal.org\/rest\/type\/node\/department"
                    }
                },
                "uuid": [
                    {
                        "value": "1fe1c90f-807b-49af-8717-6c3a899c313a"
                    }
                ]
            },
            {
                "_links": {
                    "self": {
                        "href": "http:\/\/default\/node\/111?_format=hal_json"
                    },
                    "type": {
                        "href": "http:\/\/drupal.org\/rest\/type\/node\/department"
                    }
                },
                "uuid": [
                    {
                        "value": "63d195ab-6165-452c-87cf-e125f13bea18"
                    }
                ]
            }
        ],
        "http:\/\/drupal.org\/rest\/relation\/node\/profile\/field_profile_image": [
            {
                "_links": {
                    "self": {
                        "href": "http:\/\/default\/sites\/default\/files\/2017-05\/_W0A0990_7_1.jpg"
                    },
                    "type": {
                        "href": "http:\/\/drupal.org\/rest\/type\/file\/file"
                    }
                },
                "uuid": [
                    {
                        "value": "9b5dc0cd-78c9-4677-895d-f0c732df008f"
                    }
                ],
                "alt": "Sarah Wall",
                "title": "",
                "width": "360",
                "height": "458"
            }
        ]
    },
    "created": [
        {
            "value": 1493782596
        }
    ],
    "changed": [
        {
            "value": 1496175035
        }
    ],
    "promote": [
        {
            "value": false
        }
    ],
    "sticky": [
        {
            "value": false
        }
    ],
    "revision_translation_affected": [
        {
            "value": true
        }
    ],
    "path": [
        {
            "alias": "\/profile-list\/sarah-wall",
            "pid": 9
        }
    ],
    "body": [
        {
            "value": "<blockquote>\r\n<p>Sarah\u2019s career in the tech sector spans seventeen years, where she has concentrated on leading projects that blend people, process and technology, to support organizational change and business process improvements.<\/p>\r\n<\/blockquote>\r\n\r\n<p>Sarah Wall is a Senior Project Manager at ImageX where she leads cross-functional teams and manages web development projects. With previous experience as a chief product officer, consulting services manager and business consultant, she has provided strategic advice and hands-on project management to startups and established organizations who desire to thrive amidst change while keeping their customers happy.&nbsp;<\/p>\r\n\r\n<p>As a leadership coach, through her one-on-one coaching and workshops, she helps people to reach their full potential by using a strengths-based approach to develop effective leaders, thereby improving employee relationships and engagement.&nbsp;<\/p>\r\n\r\n<p>Sarah is passionate about yoga and using education to change the world. She\u2019s a proud board member of Helping Hands for India - a registered charity in Canada and India dedicated to providing opportunities to those who are less fortunate to improve their lives. The organization has built a school in a rural area in northern India and are providing free education to 300 students.<\/p>\r\n",
            "format": "rich_text",
            "summary": ""
        }
    ],
    "field_profile_courses": [
        {
            "value": "English 110"
        }
    ],
    "field_profile_education": [
        {
            "value": "Ph.D., Literature, Harvard University, Cambridge, 2005"
        }
    ],
    "field_profile_email": [
        {
            "value": "sarah@imagexmedia.com"
        }
    ],
    "field_profile_job_title": [
        {
            "value": "Professor of Project Management"
        }
    ],
    "field_profile_name": [
        {
            "title": null,
            "given": "Sarah",
            "middle": null,
            "family": "Wall",
            "generational": null,
            "credentials": null
        }
    ],
    "field_profile_office": [
        {
            "value": "22 Omega Ave."
        }
    ],
    "field_profile_phone": [
        {
            "value": "692657219"
        }
    ],
    "field_profile_publications": [
        {
            "value": "<h3>Vestibulum pharetra ante non nisi molestie, ut tempus quam gravida. Donec finibus magna nec ante efficitur ultricies&nbsp;\u2013 May 2 2017<\/h3>\r\n\r\n<p>by Tom Juneau&nbsp;(Author)<\/p>\r\n",
            "format": "rich_text"
        },
        {
            "value": "<h3>Vestibulum pharetra ante non nisi molestie, ut tempus quam gravida&nbsp;\u2013 Nov 1 2016<\/h3>\r\n\r\n<p>by Smith James&nbsp;(Author, Contributor)<\/p>\r\n",
            "format": "rich_text"
        },
        {
            "value": "<h3>Vestibulum pharetra ante non nisi molestie, ut tempus quam gravida\u2013 Apr 8 2005<\/h3>\r\n\r\n<p>by Tandy Newburne&nbsp;(Author)<\/p>\r\n",
            "format": "rich_text"
        }
    ],
    "field_profile_research_projects": [
        {
            "value": "<h3>Responsible Practice<\/h3>\r\n\r\n<p>Vestibulum pharetra ante non nisi molestie, ut tempus quam gravida.<\/p>\r\n\r\n<p><strong>Principal Investigator:<\/strong> D. Smith<\/p>\r\n",
            "format": "rich_text"
        },
        {
            "value": "<h3>True Stories Well Told<\/h3>\r\n\r\n<p>Vestibulum pharetra ante non nisi molestie, ut tempus quam gravida.<\/p>\r\n\r\n<p><strong>Principal Investigator:<\/strong> L. Green<\/p>\r\n",
            "format": "rich_text"
        },
        {
            "value": "<h3>A randomized trial.<\/h3>\r\n\r\n<p><strong>Principal Investigator:&nbsp;<\/strong>John C. Smith<\/p>\r\n\r\n<p><strong>Supervisor:<\/strong> Aaron Chang, MD, associate professor of dentistry.<\/p>\r\n",
            "format": "rich_text"
        }
    ],
    "field_profile_students": [
        {
            "value": "<ul>\r\n\t<li>Les Cordell<\/li>\r\n\t<li>Yuriy Gerasimov<\/li>\r\n\t<li>Gavin Graham<\/li>\r\n\t<li>Bryan Heredia<\/li>\r\n\t<li>Erin Joyce<\/li>\r\n\t<li>Travis Ketler<\/li>\r\n<\/ul>\r\n",
            "format": "rich_text"
        }
    ],
    "field_profile_type": [
        {
            "value": "faculty"
        }
    ]
}
